3648            
4               
11              
0               
0               
11              
17408           
0               
0               
0               
1025            
32              
2               
6               
0               
1               

// Volume Independent Parameters
1               
0               
0               
0               
0               
0               
0               
0               
0               
1               
20              
5               
200             
10000           
-96             
-80             
-50             
-30             
0               
-86             
-70             
-40             
-25             
-25             
1               
0               
32              
32              
32              
32              
32              
51              
50              
46              
45              
43              
40              
39              
38              
40              
42              
43              
44              
42              
39              
35              
34              
35              
39              
43              
45              
46              
44              
41              
39              
37              
38              
36              
35              
36              
38              
41              
41              
40              
39              
38              
36              
34              
34              
35              
37              
41              
42              
41              
38              
36              
36              
35              
36              
37              
38              
39              
40              
40              
39              
37              
35              
34              
34              
35              
35              
35              
36              
37              
36              
35              
35              
34              
33              
33              
34              
34              
35              
35              
34              
34              
34              
34              
34              
34              
34              
34              
33              
33              
32              
32              
31              
31              
30              
30              
29              
29              
29              
29              
28              
28              
28              
28              
28              
27              
27              
27              
27              
27              
27              
27              
27              
26              
26              
26              
26              
26              
26              
26              
26              
27              
27              
27              
27              
27              
28              
28              
28              
28              
28              
29              
29              
29              
30              
30              
30              
30              
30              
30              
31              
31              
31              
31              
32              
32              
32              
32              
32              
33              
33              
34              
34              
34              
34              
35              
35              
35              
36              
36              
37              
37              
38              
38              
38              
39              
39              
39              
40              
40              
40              
41              
41              
41              
41              
41              
41              
41              
40              
40              
40              
39              
38              
38              
37              
36              
35              
35              
34              
33              
33              
32              
32              
31              
31              
31              
30              
30              
30              
30              
30              
29              
29              
29              
29              
29              
29              
28              
28              
28              
28              
28              
28              
28              
27              
27              
27              
27              
27              
27              
27              
27              
26              
26              
26              
26              
25              
25              
25              
25              
25              
24              
24              
23              
23              
23              
23              
23              
23              
23              
23              
23              
23              
23              
23              
23              
23              
24              
24              
24              
25              
25              
25              
25              
25              
25              
25              
25              
25              
25              
25              
24              
23              
23              
22              
22              
21              
21              
20              
20              
19              
19              
18              
17              
17              
17              
16              
16              
16              
15              
15              
14              
14              
14              
14              
14              
13              
13              
13              
13              
13              
13              
13              
12              
12              
12              
12              
12              
12              
12              
12              
12              
12              
12              
12              
12              
11              
11              
11              
11              
10              
10              
10              
10              
10              
10              
10              
10              
10              
10              
10              
10              
10              
10              
10              
10              
10              
10              
10              
10              
10              
10              
10              
10              
10              
10              
10              
10              
10              
10              
10              
10              
10              
10              
10              
10              
10              
10              
10              
10              
10              
10              
10              
10              
10              
10              
10              
10              
10              
10              
10              
10              
10              
10              
10              
10              
10              
10              
10              
10              
10              
10              
10              
10              
10              
10              
10              
10              
10              
10              
10              
10              
10              
10              
10              
10              
10              
10              
10              
10              
10              
10              
10              
10              
10              
10              
10              
10              
10              
10              
10              
10              
10              
10              
10              
10              
10              
10              
10              
10              
10              
10              
10              
10              
10              
10              
11              
11              
11              
11              
12              
12              
12              
13              
13              
13              
14              
14              
14              
14              
14              
15              
15              
15              
15              
15              
15              
15              
15              
15              
15              
16              
16              
16              
16              
16              
16              
16              
17              
17              
17              
17              
18              
18              
18              
18              
19              
19              
19              
19              
19              
19              
19              
19              
19              
19              
19              
19              
19              
19              
18              
18              
18              
18              
18              
18              
18              
18              
18              
18              
18              
18              
18              
18              
19              
19              
19              
19              
20              
20              
20              
21              
21              
21              
22              
22              
22              
23              
23              
23              
23              
24              
24              
24              
24              
24              
24              
24              
24              
24              
24              
25              
25              
25              
25              
26              
27              
26              
25              
25              
26              
28              
30              
29              
29              
31              
32              
30              
27              
25              
26              
28              
28              
26              
27              
28              
28              
28              
28              
26              
24              
24              
24              
25              
27              
26              
26              
26              
26              
25              
25              
25              
24              
24              
23              
24              
22              
20              
19              
17              
15              
14              
13              
13              
13              
13              
13              
13              
13              
13              
13              
13              
13              
13              
13              
13              
13              
13              
13              
13              
22              
22              
32              
32              
32              
32              
32              
51              
47              
45              
43              
41              
38              
37              
38              
40              
42              
44              
43              
41              
36              
33              
33              
35              
40              
42              
43              
42              
42              
39              
37              
35              
34              
33              
33              
33              
36              
39              
40              
37              
34              
33              
32              
32              
32              
35              
37              
39              
38              
36              
36              
36              
35              
33              
33              
33              
35              
36              
36              
35              
33              
32              
31              
30              
31              
32              
32              
33              
33              
32              
31              
30              
30              
30              
30              
30              
31              
31              
31              
31              
31              
31              
32              
32              
32              
32              
32              
32              
32              
32              
32              
31              
31              
31              
30              
30              
30              
30              
29              
29              
29              
29              
28              
28              
28              
27              
27              
27              
27              
26              
26              
26              
25              
25              
25              
25              
24              
24              
24              
24              
24              
24              
24              
24              
24              
24              
25              
25              
25              
25              
25              
25              
25              
25              
25              
25              
25              
25              
25              
25              
26              
26              
26              
26              
26              
26              
26              
26              
26              
27              
27              
27              
27              
27              
27              
27              
28              
28              
28              
28              
28              
28              
28              
28              
28              
28              
28              
28              
28              
27              
27              
27              
27              
27              
27              
27              
27              
26              
26              
26              
26              
26              
25              
25              
25              
25              
24              
24              
23              
23              
23              
22              
22              
21              
21              
21              
20              
20              
20              
20              
19              
19              
19              
19              
19              
19              
18              
18              
18              
18              
18              
17              
17              
17              
17              
17              
16              
16              
16              
16              
16              
15              
15              
15              
15              
15              
15              
14              
14              
14              
14              
14              
13              
13              
13              
13              
12              
12              
12              
12              
12              
11              
11              
11              
11              
11              
11              
11              
10              
10              
10              
10              
10              
10              
10              
10              
10              
10              
10              
10              
10              
10              
10              
10              
10              
10              
10              
10              
10              
10              
10              
10              
10              
10              
10              
10              
10              
10              
10              
10              
10              
10              
10              
10              
10              
10              
10              
10              
10              
10              
10              
10              
10              
10              
10              
10              
10              
10              
10              
10              
10              
10              
10              
10              
10              
10              
10              
10              
10              
10              
10              
10              
10              
10              
10              
10              
10              
10              
10              
10              
10              
10              
10              
10              
10              
10              
10              
10              
10              
11              
11              
11              
12              
12              
12              
13              
13              
13              
14              
14              
14              
15              
15              
15              
15              
15              
15              
15              
15              
15              
15              
15              
15              
14              
14              
14              
14              
14              
14              
14              
14              
14              
13              
13              
13              
13              
13              
13              
13              
13              
14              
14              
14              
14              
14              
14              
15              
15              
15              
15              
16              
16              
16              
17              
17              
17              
18              
18              
18              
19              
19              
19              
19              
19              
19              
19              
19              
19              
19              
19              
19              
19              
19              
19              
19              
19              
20              
20              
20              
21              
21              
22              
22              
23              
23              
24              
25              
26              
26              
27              
27              
28              
28              
28              
28              
29              
29              
29              
29              
28              
28              
28              
28              
28              
28              
28              
27              
27              
27              
27              
27              
27              
27              
27              
28              
28              
28              
28              
28              
29              
29              
29              
30              
30              
30              
31              
31              
31              
32              
32              
32              
33              
33              
33              
33              
33              
34              
34              
34              
34              
34              
34              
34              
35              
35              
35              
35              
35              
36              
36              
36              
37              
37              
38              
38              
39              
40              
40              
41              
41              
42              
43              
44              
45              
45              
46              
47              
47              
47              
48              
48              
48              
47              
47              
46              
46              
45              
44              
44              
43              
42              
42              
41              
41              
40              
39              
36              
33              
32              
31              
29              
28              
29              
31              
32              
29              
26              
25              
24              
22              
20              
18              
18              
18              
19              
18              
17              
16              
16              
16              
15              
12              
10              
10              
10              
10              
10              
10              
10              
10              
11              
12              
14              
16              
19              
22              
22              
21              
22              
25              
26              
26              
28              
30              
30              
30              
30              
30              
30              
30              
30              
30              
30              
30              
30              
30              
30              
30              
30              
30              
23              
23              
32              
32              
32              
32              
32              
32              
32              
32              
32              
32              
32              
32              
32              
32              
32              
32              
32              
32              
32              
32              
32              
32              
32              
32              
32              
32              
32              
32              
32              
32              
32              
32              
32              
32              
32              
32              
32              
32              
32              
32              
32              
32              
32              
32              
32              
32              
32              
32              
32              
32              
32              
32              
32              
32              
32              
32              
32              
32              
32              
32              
32              
32              
32              
32              
32              
32              
32              
32              
32              
32              
32              
32              
32              
32              
32              
32              
32              
32              
32              
32              
32              
32              
32              
32              
32              
32              
32              
32              
32              
32              
32              
32              
32              
32              
32              
32              
32              
32              
32              
32              
32              
32              
32              
32              
32              
32              
32              
32              
32              
32              
32              
32              
32              
32              
32              
32              
32              
32              
32              
32              
32              
32              
32              
32              
32              
32              
32              
32              
32              
32              
32              
32              
32              
32              
32              
32              
32              
32              
32              
32              
32              
32              
32              
32              
32              
32              
32              
32              
32              
32              
32              
32              
32              
32              
32              
32              
32              
32              
32              
32              
32              
32              
32              
32              
32              
32              
32              
32              
32              
32              
32              
32              
32              
32              
32              
32              
32              
32              
32              
32              
32              
32              
32              
32              
32              
32              
32              
32              
32              
32              
32              
32              
32              
32              
32              
32              
32              
32              
32              
32              
32              
32              
32              
32              
32              
32              
32              
32              
32              
32              
32              
32              
32              
32              
32              
32              
32              
32              
32              
32              
32              
32              
32              
32              
32              
32              
32              
32              
32              
32              
32              
32              
32              
32              
32              
32              
32              
32              
32              
32              
32              
32              
32              
32              
32              
32              
32              
32              
32              
32              
32              
32              
32              
32              
32              
32              
32              
32              
32              
32              
32              
32              
32              
32              
32              
32              
32              
32              
32              
32              
32              
32              
32              
32              
32              
32              
32              
32              
32              
32              
32              
32              
32              
32              
32              
32              
32              
32              
32              
32              
32              
32              
32              
32              
32              
32              
32              
32              
32              
32              
32              
32              
32              
32              
32              
32              
32              
32              
32              
32              
32              
32              
32              
32              
32              
32              
32              
32              
32              
32              
32              
32              
32              
32              
32              
32              
32              
32              
32              
32              
32              
32              
32              
32              
32              
32              
32              
32              
32              
32              
32              
32              
32              
32              
32              
32              
32              
32              
32              
32              
32              
32              
32              
32              
32              
32              
32              
32              
32              
32              
32              
32              
32              
32              
32              
32              
32              
32              
32              
32              
32              
32              
32              
32              
32              
32              
32              
32              
32              
32              
32              
32              
32              
32              
32              
32              
32              
32              
32              
32              
32              
32              
32              
32              
32              
32              
32              
32              
32              
32              
32              
32              
32              
32              
32              
32              
32              
32              
32              
32              
32              
32              
32              
32              
32              
32              
32              
32              
32              
32              
32              
32              
32              
32              
32              
32              
32              
32              
32              
32              
32              
32              
32              
32              
32              
32              
32              
32              
32              
32              
32              
32              
32              
32              
32              
32              
32              
32              
32              
32              
32              
32              
32              
32              
32              
32              
32              
32              
32              
32              
32              
32              
32              
32              
32              
32              
32              
32              
32              
32              
32              
32              
32              
32              
32              
32              
32              
32              
32              
32              
32              
32              
32              
32              
32              
32              
32              
32              
32              
32              
32              
32              
32              
32              
32              
32              
32              
32              
32              
32              
32              
32              
32              
32              
32              
32              
32              
32              
32              
32              
32              
32              
32              
32              
32              
32              
32              
32              
32              
32              
32              
32              
32              
32              
32              
32              
32              
32              
32              
32              
32              
32              
32              
32              
32              
32              
32              
32              
32              
32              
32              
32              
32              
32              
32              
32              
32              
32              
32              
32              
32              
32              
32              
32              
32              
32              
32              
32              
32              
32              
32              
32              
32              
32              
32              
32              
32              
32              
32              
32              
32              
32              
32              
32              
32              
32              
32              
32              
32              
32              
32              
32              
32              
32              
32              
32              
32              
32              
32              
32              
32              
32              
32              
32              
32              
32              
32              
32              
32              
32              
32              
32              
32              
32              
32              
32              
32              
32              
32              
32              
32              
32              
32              
32              
32              
32              
32              
32              
32              
32              
32              
32              
32              
32              
32              
32              
32              
32              
32              
32              
32              
32              
32              
32              
32              
32              
32              
32              
32              
32              
32              
32              
32              
32              
32              
32              
32              
32              
32              
32              
32              
32              
32              
32              
32              
32              
32              
32              
32              
32              
32              
32              
32              
32              
32              
32              
32              
32              
32              
32              
32              
32              
32              
32              
32              
32              
32              
32              
32              
32              
32              
32              
32              
32              
32              
32              
32              
32              
32              
32              
32              
32              
32              
32              
32              
32              
32              
32              
32              
32              
32              
32              
32              
32              
32              
32              
32              
32              
32              
32              
32              
32              
32              
32              
32              
32              
32              
32              
32              
32              
32              
32              
32              
32              
32              
32              
32              
32              
32              
32              
32              
32              
32              
32              
32              
32              
32              
32              
32              
32              
32              
32              
32              
32              
32              
32              
32              
32              
32              
32              
32              
32              
32              
32              
32              
32              
32              
32              
32              
32              
32              
32              
32              
32              
32              
32              
32              
32              
32              
32              
32              
32              
32              
32              
32              
32              
32              
32              
32              
32              
32              
32              
32              
32              
32              
32              
32              
32              
32              
32              
32              
32              
32              
32              
32              
32              
32              
32              
32              
32              
32              
32              
32              
32              
32              
32              
32              
32              
32              
32              
32              
32              
32              
32              
32              
32              
32              
32              
32              
32              
32              
32              
32              
32              
32              
32              
32              
32              
32              
32              
32              
32              
32              
32              
32              
32              
32              
32              
32              
32              
32              
32              
32              
32              
32              
32              
32              
32              
32              
32              
32              
32              
32              
32              
32              
32              
32              
32              
32              
32              
32              
32              
32              
32              
32              
32              
32              
32              
32              
32              
32              
32              
32              
32              
32              
32              
32              
32              
32              
32              
32              
32              
32              
32              
32              
32              
32              
32              
32              
32              
32              
32              
32              
32              
32              
32              
32              
32              
32              
32              
32              
32              
32              
32              
32              
32              
32              
32              
32              
32              
32              
32              
32              
32              
32              
32              
32              
32              
32              
32              
32              
32              
32              
32              
32              
32              
32              
32              
32              
32              
32              
32              
32              
32              
32              
32              
32              
32              
32              
32              
32              
32              
32              
32              
32              
32              
32              
32              
32              
32              
32              
32              
32              
32              
32              
32              
32              
32              
32              
32              
32              
32              
32              
32              
32              
32              
32              
32              
32              
32              
32              
32              
32              
32              
32              
32              
32              
32              
32              
32              
32              
32              
32              
32              
32              
32              
32              
32              
32              
32              
32              
32              
32              
32              
32              
32              
32              
32              
32              
32              
32              
32              
32              
32              
32              
32              
32              
32              
32              
32              
32              
32              
32              
32              
32              
32              
32              
32              
32              
32              
32              
32              
32              
32              
32              
32              
32              
32              
32              
32              
32              
32              
32              
32              
32              
32              
32              
32              
32              
32              
32              
32              
32              
32              
32              
32              
32              
32              
32              
32              
32              
32              
32              
32              
32              
32              
32              
32              
32              
32              
32              
32              
32              
32              
32              
32              
32              
32              
32              
32              
32              
32              
32              
32              
32              
32              
32              
32              
32              
32              
32              
32              
32              
32              
32              
32              
32              
32              
32              
32              
32              
32              
32              
32              
32              
32              
32              
32              
32              
32              
32              
32              
32              
32              
32              
32              
32              
32              
32              
32              
32              
32              
32              
32              
32              
32              
32              
32              
32              
32              
32              
32              
32              
32              
32              
32              
32              
32              
32              
32              
32              
32              
32              
32              
32              
32              
32              
32              
32              
32              
32              
32              
32              
32              
32              
32              
32              
32              
32              
32              
32              
32              
32              
32              
32              
32              
32              
32              
32              
32              
0               
70              
70              
-6              
-6              
-48             
-48             
0               
32767           
33              
40              
100             
1               
0               
0               
32767           
-12             
12              
-79             
-77             
-79             
-83             
-84             
-87             
-89             
-90             
-92             
-92             
-93             
-93             
-94             
-95             
-96             
-96             
-97             
-98             
-98             
-98             
-98             
-98             
-99             
-100            
-100            
-101            
-101            
-100            
-101            
-101            
-102            
-102            
-102            
-102            
-102            
-103            
-103            
-103            
-102            
-103            
-102            
-103            
-105            
-105            
-104            
-105            
-104            
-104            
-104            
-104            
-104            
-105            
-105            
-105            
-105            
-105            
-105            
-106            
-106            
-106            
-106            
-106            
-106            
-106            
-106            
-106            
-106            
-105            
-107            
-107            
-107            
-107            
-107            
-107            
-107            
-106            
-107            
-107            
-108            
-108            
-109            
-107            
-107            
-107            
-108            
-107            
-107            
-108            
-108            
-108            
-108            
-107            
-108            
-109            
-108            
-108            
-108            
-108            
-108            
-108            
-108            
-109            
-109            
-109            
-109            
-109            
-108            
-109            
-109            
-109            
-110            
-109            
-109            
-109            
-109            
-109            
-109            
-109            
-110            
-108            
-109            
-110            
-109            
-109            
-110            
-109            
-109            
-109            
-110            
-110            
-109            
-109            
-109            
-109            
-110            
-110            
-110            
-109            
-110            
-110            
-110            
-110            
-110            
-110            
-110            
-111            
-111            
-111            
-111            
-110            
-109            
-109            
-109            
-110            
-109            
-109            
-110            
-110            
-110            
-110            
-111            
-111            
-111            
-110            
-111            
-111            
-111            
-110            
-110            
-110            
-109            
-110            
-110            
-110            
-110            
-111            
-110            
-111            
-111            
-110            
-110            
-110            
-110            
-109            
-110            
-111            
-110            
-111            
-110            
-111            
-110            
-110            
-108            
-110            
-111            
-111            
-109            
-110            
-111            
-110            
-111            
-112            
-111            
-112            
-111            
-110            
-111            
-111            
-111            
-111            
-111            
-112            
-112            
-110            
-110            
-110            
-111            
-110            
-110            
-111            
-110            
-111            
-110            
-111            
-110            
-111            
-111            
-111            
-111            
-111            
-111            
-111            
-112            
-112            
-112            
-111            
-111            
-111            
-111            
-110            
-110            
-110            
-111            
-111            
-111            
-111            
-111            
-111            
-111            
-111            
-111            
-111            
-111            
-111            
-111            
-111            
-110            
-110            
-111            
-110            
-110            
-111            
-111            
-110            
-111            
-111            
-112            
-111            
-110            
-111            
-111            
-110            
-111            
-110            
-110            
-110            
-110            
-111            
-111            
-110            
-110            
-110            
-110            
-111            
-112            
-111            
-110            
-110            
-111            
-110            
-110            
-110            
-111            
-111            
-110            
-110            
-110            
-110            
-110            
-110            
-110            
-110            
-110            
-110            
-110            
-111            
-110            
-110            
-110            
-109            
-109            
-109            
-109            
-109            
-109            
-109            
-109            
-108            
-109            
-108            
-109            
-109            
-109            
-108            
-109            
-108            
-108            
-107            
-107            
-107            
-107            
-107            
-107            
-107            
-108            
-108            
-107            
-107            
-105            
-106            
-107            
-106            
-106            
-106            
-105            
-105            
-104            
-105            
-105            
-105            
-105            
-106            
-104            
-104            
-105            
-106            
-105            
-105            
-104            
-105            
-106            
-105            
-105            
-105            
-106            
-106            
-106            
-106            
-106            
-107            
-107            
-107            
-108            
-107            
-108            
-107            
-107            
-108            
-108            
-108            
-108            
-108            
-108            
-108            
-108            
-107            
-108            
-108            
-108            
-108            
-109            
-110            
-109            
-109            
-109            
-109            
-108            
-109            
-109            
-110            
-110            
-110            
-110            
-110            
-109            
-108            
-109            
-109            
-109            
-109            
-109            
-109            
-110            
-111            
-110            
-110            
-110            
-110            
-111            
-110            
-110            
-110            
-110            
-110            
-111            
-111            
-110            
-110            
-110            
-110            
-111            
-111            
-111            
-111            
-111            
-111            
-112            
-111            
-111            
-111            
-110            
-110            
-110            
-111            
-111            
-111            
-111            
-112            
-111            
-110            
-111            
-111            
-111            
-111            
-111            
-110            
-110            
-111            
-111            
-111            
-111            
-111            
-111            
-111            
-112            
-111            
-111            
-111            
-110            
-111            
-111            
-111            
-111            
-111            
-111            
-111            
-111            
-111            
-111            
-111            
-111            
-110            
-110            
-110            
-110            
-110            
-111            
-111            
-112            
-110            
-111            
-110            
-110            
-109            
-110            
-110            
-109            
-110            
-110            
-111            
-111            
-110            
-110            
-110            
-110            
-110            
-110            
-111            
-112            
-112            
-112            
-113            
-113            
-79             
-76             
-78             
-82             
-84             
-87             
-88             
-89             
-90             
-91             
-92             
-92             
-94             
-95             
-96             
-96             
-96             
-97             
-98             
-98             
-98             
-98             
-97             
-97             
-100            
-99             
-100            
-100            
-100            
-100            
-100            
-101            
-102            
-101            
-102            
-102            
-103            
-103            
-103            
-103            
-103            
-103            
-104            
-103            
-103            
-104            
-105            
-104            
-104            
-105            
-104            
-105            
-104            
-105            
-105            
-104            
-105            
-106            
-105            
-105            
-105            
-105            
-106            
-106            
-106            
-106            
-106            
-106            
-106            
-106            
-106            
-106            
-106            
-107            
-107            
-107            
-107            
-107            
-106            
-107            
-107            
-107            
-107            
-108            
-108            
-108            
-108            
-107            
-107            
-108            
-108            
-107            
-108            
-108            
-108            
-108            
-108            
-108            
-109            
-109            
-109            
-109            
-109            
-109            
-108            
-108            
-108            
-109            
-109            
-108            
-109            
-108            
-108            
-109            
-109            
-109            
-109            
-108            
-108            
-109            
-109            
-108            
-109            
-108            
-108            
-109            
-109            
-109            
-108            
-109            
-109            
-109            
-109            
-109            
-110            
-109            
-108            
-108            
-109            
-108            
-109            
-109            
-109            
-110            
-110            
-110            
-110            
-110            
-110            
-110            
-110            
-110            
-109            
-109            
-110            
-110            
-110            
-110            
-109            
-109            
-109            
-109            
-109            
-110            
-110            
-110            
-110            
-110            
-110            
-110            
-109            
-110            
-110            
-109            
-110            
-109            
-109            
-110            
-110            
-109            
-109            
-109            
-111            
-109            
-108            
-109            
-109            
-109            
-109            
-110            
-109            
-109            
-109            
-110            
-110            
-109            
-105            
-106            
-110            
-110            
-109            
-109            
-109            
-110            
-110            
-109            
-110            
-110            
-110            
-108            
-109            
-109            
-109            
-108            
-109            
-110            
-109            
-109            
-109            
-110            
-110            
-110            
-110            
-110            
-110            
-109            
-108            
-108            
-110            
-110            
-110            
-109            
-110            
-110            
-110            
-109            
-109            
-108            
-109            
-109            
-109            
-109            
-109            
-109            
-109            
-109            
-109            
-109            
-108            
-108            
-108            
-108            
-108            
-108            
-107            
-108            
-108            
-107            
-107            
-107            
-107            
-107            
-106            
-107            
-106            
-106            
-106            
-106            
-106            
-106            
-106            
-107            
-107            
-105            
-106            
-106            
-105            
-104            
-103            
-104            
-103            
-104            
-103            
-103            
-104            
-105            
-103            
-104            
-104            
-104            
-104            
-104            
-105            
-104            
-104            
-105            
-105            
-105            
-104            
-105            
-105            
-106            
-105            
-106            
-106            
-105            
-105            
-106            
-106            
-107            
-107            
-107            
-108            
-107            
-107            
-108            
-107            
-108            
-108            
-108            
-108            
-108            
-109            
-108            
-108            
-108            
-108            
-109            
-108            
-108            
-110            
-109            
-110            
-110            
-109            
-109            
-110            
-109            
-110            
-109            
-110            
-109            
-110            
-109            
-110            
-109            
-110            
-110            
-110            
-110            
-110            
-109            
-111            
-111            
-110            
-110            
-110            
-111            
-110            
-111            
-110            
-110            
-110            
-110            
-110            
-110            
-111            
-110            
-110            
-111            
-111            
-111            
-110            
-111            
-110            
-109            
-109            
-110            
-111            
-111            
-110            
-111            
-111            
-110            
-109            
-110            
-111            
-111            
-111            
-112            
-111            
-111            
-110            
-111            
-112            
-111            
-111            
-112            
-111            
-111            
-112            
-111            
-111            
-111            
-111            
-111            
-111            
-110            
-111            
-111            
-111            
-111            
-112            
-111            
-110            
-112            
-111            
-111            
-110            
-111            
-110            
-112            
-111            
-111            
-111            
-110            
-111            
-111            
-111            
-111            
-110            
-111            
-111            
-111            
-112            
-112            
-111            
-113            
-111            
-112            
-113            
-113            
-112            
-112            
-112            
-111            
-112            
-111            
-112            
-112            
-112            
-112            
-112            
-113            
-112            
-111            
-112            
-112            
-112            
-112            
-111            
-112            
-112            
-111            
-111            
-111            
-111            
-111            
-112            
-113            
-112            
-111            
-111            
-111            
-111            
-111            
-111            
-113            
-112            
-112            
-111            
-111            
-111            
-111            
-111            
-111            
-111            
-110            
-111            
-111            
-111            
-111            
-112            
-111            
-112            
-111            
-110            
-110            
-111            
-112            
-112            
-111            
-111            
-111            
-111            
-112            
-112            
-112            
-112            
-113            
-114            
-113            
-115            
0               
1638            
655             
9830            
300             
300             
0               
-15             
0               
-4              
0               
-15             
0               
6               
-20             
-3              
2344            
4687            
0               
0               
0               
32767           
0               
-20             
1               
0               
17000           
1               
50              
6               
0               
136             
50              
0               
251             
25              
0               
2500            
200             
0               
5500            
100             
0               
12000           
100             
0               
8500            
100             
-8653           
9306            
400             
-7782           
13105           
800             
973             
13857           
1000            
0               
15005           
100             
2               
0               
200             
100             
-16             
2000            
100             
-16             
0               
2               
1               
20              
3               
0               
20              
0               
4               
50              
5000            
-96             
-24             
0               
0               
0               
-96             
-24             
-20             
0               
0               
0               
0               
0               
800             
2               
0               
20              
0               
0               
300             
20000           
-96             
0               
0               
0               
0               
-96             
0               
0               
0               
0               
1               
0               
0               
20              
2               
1               
20              
0               
0               
10000           
10000           
-96             
0               
0               
0               
0               
-96             
0               
0               
0               
0               
1               
0               
0               
20              
2               
1               
20              
0               
0               
10000           
10000           
-96             
0               
0               
0               
0               
-96             
0               
0               
0               
0               
1               
0               
0               
20              
2               
1               
20              
0               
0               
10000           
10000           
-96             
0               
0               
0               
0               
-96             
0               
0               
0               
0               
1               
0               
1               
20              
3               
0               
20              
0               
0               
300             
10000           
-96             
-25             
0               
0               
0               
-96             
-25             
-15             
0               
0               
0               
0               
1               
-1              
17              
0               
27233           
30              
0               
0               
0               
0               
0               
0               
0               
0               
165             
0               
0               
0               
0               
0               
0               
0               
1               
0               
2               
1               
-20             
-20             
-40             
-20             
-76             
-31             
0               
15              
96              
84              
6826            
6826            
6826            
6826            
6826            
6826            
6826            
6826            
6826            
6826            

// Volume 0
