[
    {
        "project":"21882",
        "name":"default",
        "product":"CPH2401",
        "device":"OP557AL1",
        "model":"CPH2401",
        "first_api_level":"31",
        "manufacturer": "OnePlus",
        "brand": "OnePlus",
        "base_oses": [
            {
              "13": "OnePlus/CPH2401/OP557AL1:13/TP1A.220905.001/S.a53d48-101:user/release-keys"
            }
        ],
        "emer_base_oses": [
            {
              "13": "OnePlus/CPH2401/OP557AL1:13/TP1A.220905.001/S.a53d48-101:user/release-keys"
            }
        ]
    }
]
